%YAML 1.1
%TAG !u! tag:unity3d.com,2011:
--- !u!64 &1981006294114423781
MeshCollider:
  m_ObjectHideFlags: 0
  m_CorrespondingSourceObject: {fileID: 0}
  m_PrefabInstance: {fileID: 0}
  m_PrefabAsset: {fileID: 0}
  m_GameObject: {fileID: 3066565245181377474}
  m_Material: {fileID: 0}
  m_IsTrigger: 0
  m_Enabled: 1
  serializedVersion: 4
  m_Convex: 0
  m_CookingOptions: 30
  m_Mesh: {fileID: -972913147668469785, guid: bfb76a8c1c33cfe4c9cd249af6cc3d5e, type: 3}
--- !u!1001 &2760646125073794707
PrefabInstance:
  m_ObjectHideFlags: 0
  serializedVersion: 2
  m_Modification:
    m_TransformParent: {fileID: 0}
    m_Modifications:
    - target: {fileID: -8679921383154817045, guid: bfb76a8c1c33cfe4c9cd249af6cc3d5e,
        type: 3}
      propertyPath: m_LocalPosition.x
      value: -0.73
      objectReference: {fileID: 0}
    - target: {fileID: -8679921383154817045, guid: bfb76a8c1c33cfe4c9cd249af6cc3d5e,
        type: 3}
      propertyPath: m_LocalPosition.y
      value: -1.01
      objectReference: {fileID: 0}
    - target: {fileID: -8679921383154817045, guid: bfb76a8c1c33cfe4c9cd249af6cc3d5e,
        type: 3}
      propertyPath: m_LocalPosition.z
      value: -0.13
      objectReference: {fileID: 0}
    - target: {fileID: -8679921383154817045, guid: bfb76a8c1c33cfe4c9cd249af6cc3d5e,
        type: 3}
      propertyPath: m_LocalRotation.x
      value: -0.50009686
      objectReference: {fileID: 0}
    - target: {fileID: -8679921383154817045, guid: bfb76a8c1c33cfe4c9cd249af6cc3d5e,
        type: 3}
      propertyPath: m_LocalRotation.y
      value: 0.49990314
      objectReference: {fileID: 0}
    - target: {fileID: -8679921383154817045, guid: bfb76a8c1c33cfe4c9cd249af6cc3d5e,
        type: 3}
      propertyPath: m_LocalRotation.z
      value: 0.49990314
      objectReference: {fileID: 0}
    - target: {fileID: -8679921383154817045, guid: bfb76a8c1c33cfe4c9cd249af6cc3d5e,
        type: 3}
      propertyPath: m_LocalRotation.w
      value: 0.50009686
      objectReference: {fileID: 0}
    - target: {fileID: -8679921383154817045, guid: bfb76a8c1c33cfe4c9cd249af6cc3d5e,
        type: 3}
      propertyPath: m_RootOrder
      value: 0
      objectReference: {fileID: 0}
    - target: {fileID: -8679921383154817045, guid: bfb76a8c1c33cfe4c9cd249af6cc3d5e,
        type: 3}
      propertyPath: m_LocalEulerAnglesHint.x
      value: -90.00001
      objectReference: {fileID: 0}
    - target: {fileID: -8679921383154817045, guid: bfb76a8c1c33cfe4c9cd249af6cc3d5e,
        type: 3}
      propertyPath: m_LocalEulerAnglesHint.y
      value: 0
      objectReference: {fileID: 0}
    - target: {fileID: -8679921383154817045, guid: bfb76a8c1c33cfe4c9cd249af6cc3d5e,
        type: 3}
      propertyPath: m_LocalEulerAnglesHint.z
      value: 89.978004
      objectReference: {fileID: 0}
    - target: {fileID: -8679921383154817045, guid: bfb76a8c1c33cfe4c9cd249af6cc3d5e,
        type: 3}
      propertyPath: m_LocalScale.x
      value: 1.8085068
      objectReference: {fileID: 0}
    - target: {fileID: -8679921383154817045, guid: bfb76a8c1c33cfe4c9cd249af6cc3d5e,
        type: 3}
      propertyPath: m_LocalScale.y
      value: -1.3777
      objectReference: {fileID: 0}
    - target: {fileID: -8679921383154817045, guid: bfb76a8c1c33cfe4c9cd249af6cc3d5e,
        type: 3}
      propertyPath: m_LocalScale.z
      value: 1.86481
      objectReference: {fileID: 0}
    - target: {fileID: 919132149155446097, guid: bfb76a8c1c33cfe4c9cd249af6cc3d5e,
        type: 3}
      propertyPath: m_Name
      value: Stairs_01 (1)
      objectReference: {fileID: 0}
    m_RemovedComponents: []
  m_SourcePrefab: {fileID: 100100000, guid: bfb76a8c1c33cfe4c9cd249af6cc3d5e, type: 3}
--- !u!1 &3066565245181377474 stripped
GameObject:
  m_CorrespondingSourceObject: {fileID: 919132149155446097, guid: bfb76a8c1c33cfe4c9cd249af6cc3d5e,
    type: 3}
  m_PrefabInstance: {fileID: 2760646125073794707}
  m_PrefabAsset: {fileID: 0}
